Random seed: 455445
339786:4:Rime started with address 0.18.116.4.0.4.4.4
348094:4:MAC 00:12:74:04:00:04:04:04 Contiki 3.0 started. Node id is set to 4.
356551:21:Rime started with address 0.18.116.21.0.21.21.21
356611:4:nullsec CSMA ContikiMAC, channel check rate 8 Hz, radio channel 26, CCA threshold -45
365215:21:MAC 00:12:74:15:00:15:15:15 Contiki 3.0 started. Node id is set to 21.
368949:4:Tentative link-local IPv6 address fe80:0000:0000:0000:0212:7404:0004:0404
370996:4:Starting 'UDP client process'
373055:4:UDP client process started
373740:21:nullsec CSMA ContikiMAC, channel check rate 8 Hz, radio channel 26, CCA threshold -45
377490:4:Client IPv6 addresses: fe80::212:7404:4:404
386437:21:Tentative link-local IPv6 address fe80:0000:0000:0000:0212:7415:0015:1515
388483:21:Starting 'UDP client process'
390463:21:UDP client process started
395184:21:Client IPv6 addresses: fe80::212:7415:15:1515
428450:25:Rime started with address 0.18.116.25.0.25.25.25
437114:25:MAC 00:12:74:19:00:19:19:19 Contiki 3.0 started. Node id is set to 25.
445638:25:nullsec CSMA ContikiMAC, channel check rate 8 Hz, radio channel 26, CCA threshold -45
458333:25:Tentative link-local IPv6 address fe80:0000:0000:0000:0212:7419:0019:1919
460379:25:Starting 'UDP client process'
462364:25:UDP client process started
467082:25:Client IPv6 addresses: fe80::212:7419:19:1919
468185:7:Rime started with address 0.18.116.7.0.7.7.7
472469:25:Created a connection with the server :: local/remote port 8765/5678
476495:7:MAC 00:12:74:07:00:07:07:07 Contiki 3.0 started. Node id is set to 7.
485012:7:nullsec CSMA ContikiMAC, channel check rate 8 Hz, radio channel 26, CCA threshold -45
497350:7:Tentative link-local IPv6 address fe80:0000:0000:0000:0212:7407:0007:0707
499397:7:Starting 'UDP client process'
501456:7:UDP client process started
505895:7:Client IPv6 addresses: fe80::212:7407:7:707
610519:9:Rime started with address 0.18.116.9.0.9.9.9
618827:9:MAC 00:12:74:09:00:09:09:09 Contiki 3.0 started. Node id is set to 9.
627345:9:nullsec CSMA ContikiMAC, channel check rate 8 Hz, radio channel 26, CCA threshold -45
639680:9:Tentative link-local IPv6 address fe80:0000:0000:0000:0212:7409:0009:0909
641727:9:Starting 'UDP client process'
643786:9:UDP client process started
648223:9:Client IPv6 addresses: fe80::212:7409:9:909
733255:10:Rime started with address 0.18.116.10.0.10.10.10
741559:10:MAC 00:12:74:0a:00:0a:0a:0a Contiki 3.0 started. Node id is set to 10.
750148:10:nullsec CSMA ContikiMAC, channel check rate 8 Hz, radio channel 26, CCA threshold -45
762490:10:Tentative link-local IPv6 address fe80:0000:0000:0000:0212:740a:000a:0a0a
764537:10:Starting 'UDP client process'
766516:10:UDP client process started
770959:10:Client IPv6 addresses: fe80::212:740a:a:a0a
844286:6:Rime started with address 0.18.116.6.0.6.6.6
852595:6:MAC 00:12:74:06:00:06:06:06 Contiki 3.0 started. Node id is set to 6.
856998:22:Rime started with address 0.18.116.22.0.22.22.22
861112:6:nullsec CSMA ContikiMAC, channel check rate 8 Hz, radio channel 26, CCA threshold -45
865664:22:MAC 00:12:74:16:00:16:16:16 Contiki 3.0 started. Node id is set to 22.
873450:6:Tentative link-local IPv6 address fe80:0000:0000:0000:0212:7406:0006:0606
874181:22:nullsec CSMA ContikiMAC, channel check rate 8 Hz, radio channel 26, CCA threshold -45
875497:6:Starting 'UDP client process'
877556:6:UDP client process started
881993:6:Client IPv6 addresses: fe80::212:7406:6:606
886878:22:Tentative link-local IPv6 address fe80:0000:0000:0000:0212:7416:0016:1616
888924:22:Starting 'UDP client process'
890903:22:UDP client process started
895610:22:Client IPv6 addresses: fe80::212:7416:16:1616
915455:19:Rime started with address 0.18.116.19.0.19.19.19
924122:19:MAC 00:12:74:13:00:13:13:13 Contiki 3.0 started. Node id is set to 19.
932642:19:nullsec CSMA ContikiMAC, channel check rate 8 Hz, radio channel 26, CCA threshold -45
945337:19:Tentative link-local IPv6 address fe80:0000:0000:0000:0212:7413:0013:1313
947384:19:Starting 'UDP client process'
949363:19:UDP client process started
954085:19:Client IPv6 addresses: fe80::212:7413:13:1313
965807:11:Rime started with address 0.18.116.11.0.11.11.11
968181:17:Rime started with address 0.18.116.17.0.17.17.17
974111:11:MAC 00:12:74:0b:00:0b:0b:0b Contiki 3.0 started. Node id is set to 11.
976845:17:MAC 00:12:74:11:00:11:11:11 Contiki 3.0 started. Node id is set to 17.
982700:11:nullsec CSMA ContikiMAC, channel check rate 8 Hz, radio channel 26, CCA threshold -45
985361:17:nullsec CSMA ContikiMAC, channel check rate 8 Hz, radio channel 26, CCA threshold -45
987675:23:Rime started with address 0.18.116.23.0.23.23.23
993216:5:Rime started with address 0.18.116.5.0.5.5.5
995042:11:Tentative link-local IPv6 address fe80:0000:0000:0000:0212:740b:000b:0b0b
996339:23:MAC 00:12:74:17:00:17:17:17 Contiki 3.0 started. Node id is set to 23.
997105:11:Starting 'UDP client process'
998056:17:Tentative link-local IPv6 address fe80:0000:0000:0000:0212:7411:0011:1111
999084:11:UDP client process started
1000103:17:Starting 'UDP client process'
1001519:5:MAC 00:12:74:05:00:05:05:05 Contiki 3.0 started. Node id is set to 5.
1002082:17:UDP client process started
1003529:11:Client IPv6 addresses: fe80::212:740b:b:b0b
1004864:23:nullsec CSMA ContikiMAC, channel check rate 8 Hz, radio channel 26, CCA threshold -45
1006786:17:Client IPv6 addresses: fe80::212:7411:11:1111
1007352:15:Rime started with address 0.18.116.15.0.15.15.15
1010036:5:nullsec CSMA ContikiMAC, channel check rate 8 Hz, radio channel 26, CCA threshold -45
1015658:15:MAC 00:12:74:0f:00:0f:0f:0f Contiki 3.0 started. Node id is set to 15.
1017562:23:Tentative link-local IPv6 address fe80:0000:0000:0000:0212:7417:0017:1717
1019610:23:Starting 'UDP client process'
1021589:23:UDP client process started
1022373:5:Tentative link-local IPv6 address fe80:0000:0000:0000:0212:7405:0005:0505
1024248:15:nullsec CSMA ContikiMAC, channel check rate 8 Hz, radio channel 26, CCA threshold -45
1024420:5:Starting 'UDP client process'
1025378:13:Rime started with address 0.18.116.13.0.13.13.13
1026307:23:Client IPv6 addresses: fe80::212:7417:17:1717
1026479:5:UDP client process started
1030916:5:Client IPv6 addresses: fe80::212:7405:5:505
1033675:13:MAC 00:12:74:0d:00:0d:0d:0d Contiki 3.0 started. Node id is set to 13.
1036590:15:Tentative link-local IPv6 address fe80:0000:0000:0000:0212:740f:000f:0f0f
1038647:15:Starting 'UDP client process'
1040626:15:UDP client process started
1042265:13:nullsec CSMA ContikiMAC, channel check rate 8 Hz, radio channel 26, CCA threshold -45
1045073:15:Client IPv6 addresses: fe80::212:740f:f:f0f
1054606:13:Tentative link-local IPv6 address fe80:0000:0000:0000:0212:740d:000d:0d0d
1056653:13:Starting 'UDP client process'
1058632:13:UDP client process started
1063077:13:Client IPv6 addresses: fe80::212:740d:d:d0d
1076456:16:Rime started with address 0.18.116.16.0.16.16.16
1085125:16:MAC 00:12:74:10:00:10:10:10 Contiki 3.0 started. Node id is set to 16.
1093650:16:nullsec CSMA ContikiMAC, channel check rate 8 Hz, radio channel 26, CCA threshold -45
1106347:16:Tentative link-local IPv6 address fe80:0000:0000:0000:0212:7410:0010:1010
1106712:2:Rime started with address 0.18.116.2.0.2.2.2
1108395:16:Starting 'UDP client process'
1110374:16:UDP client process started
1115023:2:MAC 00:12:74:02:00:02:02:02 Contiki 3.0 started. Node id is set to 2.
1115092:16:Client IPv6 addresses: fe80::212:7410:10:1010
1118553:18:Rime started with address 0.18.116.18.0.18.18.18
1123540:2:nullsec CSMA ContikiMAC, channel check rate 8 Hz, radio channel 26, CCA threshold -45
1123775:24:Rime started with address 0.18.116.24.0.24.24.24
1127217:18:MAC 00:12:74:12:00:12:12:12 Contiki 3.0 started. Node id is set to 18.
1132439:24:MAC 00:12:74:18:00:18:18:18 Contiki 3.0 started. Node id is set to 24.
1135742:18:nullsec CSMA ContikiMAC, channel check rate 8 Hz, radio channel 26, CCA threshold -45
1135878:2:Tentative link-local IPv6 address fe80:0000:0000:0000:0212:7402:0002:0202
1137925:2:Starting 'UDP client process'
1139984:2:UDP client process started
1140956:24:nullsec CSMA ContikiMAC, channel check rate 8 Hz, radio channel 26, CCA threshold -45
1144419:2:Client IPv6 addresses: fe80::212:7402:2:202
1145234:3:Rime started with address 0.18.116.3.0.3.3.3
1148439:18:Tentative link-local IPv6 address fe80:0000:0000:0000:0212:7412:0012:1212
1150487:18:Starting 'UDP client process'
1152466:18:UDP client process started
1153538:3:MAC 00:12:74:03:00:03:03:03 Contiki 3.0 started. Node id is set to 3.
1153653:24:Tentative link-local IPv6 address fe80:0000:0000:0000:0212:7418:0018:1818
1155699:24:Starting 'UDP client process'
1157184:18:Client IPv6 addresses: fe80::212:7412:12:1212
1157678:24:UDP client process started
1162055:3:nullsec CSMA ContikiMAC, channel check rate 8 Hz, radio channel 26, CCA threshold -45
1162383:24:Client IPv6 addresses: fe80::212:7418:18:1818
1166886:1:Rime started with address 0.18.116.1.0.1.1.1
1174393:3:Tentative link-local IPv6 address fe80:0000:0000:0000:0212:7403:0003:0303
1175196:1:MAC 00:12:74:01:00:01:01:01 Contiki 3.0 started. Node id is set to 1.
1176440:3:Starting 'UDP client process'
1178499:3:UDP client process started
1182936:3:Client IPv6 addresses: fe80::212:7403:3:303
1183713:1:nullsec CSMA ContikiMAC, channel check rate 8 Hz, radio channel 26, CCA threshold -45
1196051:1:Tentative link-local IPv6 address fe80:0000:0000:0000:0212:7401:0001:0101
1198097:1:Starting 'UDP server process'
1199642:1:UDP server started
1203755:1:created a new RPL dag
1205527:1:Server IPv6 addresses: ::
1205731:1:::
1208663:1:bbbb::212:7401:1:101
1209730:1:bbbb::1
1210509:8:Rime started with address 0.18.116.8.0.8.8.8
1212606:1:fe80::212:7401:1:101
1218739:1:Created a server connection with remote address :: local/remote port 5678/8765
1218822:8:MAC 00:12:74:08:00:08:08:08 Contiki 3.0 started. Node id is set to 8.
1227339:8:nullsec CSMA ContikiMAC, channel check rate 8 Hz, radio channel 26, CCA threshold -45
1239346:20:Rime started with address 0.18.116.20.0.20.20.20
1239676:8:Tentative link-local IPv6 address fe80:0000:0000:0000:0212:7408:0008:0808
1241723:8:Starting 'UDP client process'
1243782:8:UDP client process started
1248012:20:MAC 00:12:74:14:00:14:14:14 Contiki 3.0 started. Node id is set to 20.
1248217:8:Client IPv6 addresses: fe80::212:7408:8:808
1249999:14:Rime started with address 0.18.116.14.0.14.14.14
1251226:12:Rime started with address 0.18.116.12.0.12.12.12
1256537:20:nullsec CSMA ContikiMAC, channel check rate 8 Hz, radio channel 26, CCA threshold -45
1258301:14:MAC 00:12:74:0e:00:0e:0e:0e Contiki 3.0 started. Node id is set to 14.
1259525:12:MAC 00:12:74:0c:00:0c:0c:0c Contiki 3.0 started. Node id is set to 12.
1266890:14:nullsec CSMA ContikiMAC, channel check rate 8 Hz, radio channel 26, CCA threshold -45
1268115:12:nullsec CSMA ContikiMAC, channel check rate 8 Hz, radio channel 26, CCA threshold -45
1269233:20:Tentative link-local IPv6 address fe80:0000:0000:0000:0212:7414:0014:1414
1271279:20:Starting 'UDP client process'
1273258:20:UDP client process started
1277963:20:Client IPv6 addresses: fe80::212:7414:14:1414
1279232:14:Tentative link-local IPv6 address fe80:0000:0000:0000:0212:740e:000e:0e0e
1280457:12:Tentative link-local IPv6 address fe80:0000:0000:0000:0212:740c:000c:0c0c
1281295:14:Starting 'UDP client process'
1282503:12:Starting 'UDP client process'
1283274:14:UDP client process started
1284482:12:UDP client process started
1287719:14:Client IPv6 addresses: fe80::212:740e:e:e0e
1288925:12:Client IPv6 addresses: fe80::212:740c:c:c0c
60469349:25:app:send:Hello 1 !
62260285:1:app:recv:25:Hello 1 !
70469277:25:app:send:Hello 2 !
70760770:1:app:recv:25:Hello 2 !
80469277:25:app:send:Hello 3 !
80762086:1:app:recv:25:Hello 3 !
90469277:25:app:send:Hello 4 !
90760744:1:app:recv:25:Hello 4 !
100469258:25:app:send:Hello 5 !
100760767:1:app:recv:25:Hello 5 !
110469258:25:app:send:Hello 6 !
110760587:1:app:recv:25:Hello 6 !
120469277:25:app:send:Hello 7 !
120760943:1:app:recv:25:Hello 7 !
130469258:25:app:send:Hello 8 !
130760813:1:app:recv:25:Hello 8 !
140469258:25:app:send:Hello 9 !
140762067:1:app:recv:25:Hello 9 !
150469524:25:app:send:Hello 10 !
150760780:1:app:recv:25:Hello 10 !
160469524:25:app:send:Hello 11 !
160760748:1:app:recv:25:Hello 11 !
170469505:25:app:send:Hello 12 !
170762121:1:app:recv:25:Hello 12 !
180469505:25:app:send:Hello 13 !
180760747:1:app:recv:25:Hello 13 !
190469505:25:app:send:Hello 14 !
190761017:1:app:recv:25:Hello 14 !
200469505:25:app:send:Hello 15 !
200762207:1:app:recv:25:Hello 15 !
210469505:25:app:send:Hello 16 !
210761011:1:app:recv:25:Hello 16 !
220469505:25:app:send:Hello 17 !
220761973:1:app:recv:25:Hello 17 !
230469524:25:app:send:Hello 18 !
230763167:1:app:recv:25:Hello 18 !
240469505:25:app:send:Hello 19 !
240760840:1:app:recv:25:Hello 19 !
250469558:25:app:send:Hello 20 !
250760746:1:app:recv:25:Hello 20 !
260469505:25:app:send:Hello 21 !
260762505:1:app:recv:25:Hello 21 !
270469505:25:app:send:Hello 22 !
270761145:1:app:recv:25:Hello 22 !
280469544:25:app:send:Hello 23 !
280760748:1:app:recv:25:Hello 23 !
290469505:25:app:send:Hello 24 !
290762149:1:app:recv:25:Hello 24 !
300469505:25:app:send:Hello 25 !
300760839:1:app:recv:25:Hello 25 !
310469505:25:app:send:Hello 26 !
310760839:1:app:recv:25:Hello 26 !
320469505:25:app:send:Hello 27 !
320762248:1:app:recv:25:Hello 27 !
330469505:25:app:send:Hello 28 !
330760903:1:app:recv:25:Hello 28 !
340469524:25:app:send:Hello 29 !
340760843:1:app:recv:25:Hello 29 !
350469507:25:app:send:Hello 30 !
350762250:1:app:recv:25:Hello 30 !
360469507:25:app:send:Hello 31 !
360760720:1:app:recv:25:Hello 31 !
370469507:25:app:send:Hello 32 !
370760903:1:app:recv:25:Hello 32 !
380469507:25:app:send:Hello 33 !
380762333:1:app:recv:25:Hello 33 !
390469507:25:app:send:Hello 34 !
390760839:1:app:recv:25:Hello 34 !
400469507:25:app:send:Hello 35 !
400760748:1:app:recv:25:Hello 35 !
410469507:25:app:send:Hello 36 !
410762560:1:app:recv:25:Hello 36 !
420469507:25:app:send:Hello 37 !
422012483:1:app:recv:25:Hello 37 !
430469507:25:app:send:Hello 38 !
430761009:1:app:recv:25:Hello 38 !
440469507:25:app:send:Hello 39 !
440762149:1:app:recv:25:Hello 39 !
450469505:25:app:send:Hello 40 !
450760834:1:app:recv:25:Hello 40 !
460469505:25:app:send:Hello 41 !
461138360:1:app:recv:25:Hello 41 !
470469524:25:app:send:Hello 42 !
470762249:1:app:recv:25:Hello 42 !
480469505:25:app:send:Hello 43 !
480761010:1:app:recv:25:Hello 43 !
490469524:25:app:send:Hello 44 !
490760843:1:app:recv:25:Hello 44 !
500469505:25:app:send:Hello 45 !
500762248:1:app:recv:25:Hello 45 !
510469505:25:app:send:Hello 46 !
510760942:1:app:recv:25:Hello 46 !
520469505:25:app:send:Hello 47 !
520760744:1:app:recv:25:Hello 47 !
530469505:25:app:send:Hello 48 !
530762249:1:app:recv:25:Hello 48 !
540469524:25:app:send:Hello 49 !
540760922:1:app:recv:25:Hello 49 !
550469507:25:app:send:Hello 50 !
550760744:1:app:recv:25:Hello 50 !
560469507:25:app:send:Hello 51 !
560762248:1:app:recv:25:Hello 51 !
570469507:25:app:send:Hello 52 !
570760744:1:app:recv:25:Hello 52 !
580469507:25:app:send:Hello 53 !
580760752:1:app:recv:25:Hello 53 !
590469507:25:app:send:Hello 54 !
590762205:1:app:recv:25:Hello 54 !
600469507:25:app:send:Hello 55 !
600760831:1:app:recv:25:Hello 55 !
610469507:25:app:send:Hello 56 !
610760831:1:app:recv:25:Hello 56 !
620469507:25:app:send:Hello 57 !
620761997:1:app:recv:25:Hello 57 !
630469507:25:app:send:Hello 58 !
630760749:1:app:recv:25:Hello 58 !
640469526:25:app:send:Hello 59 !
640760744:1:app:recv:25:Hello 59 !
650469507:25:app:send:Hello 60 !
650761998:1:app:recv:25:Hello 60 !
660469507:25:app:send:Hello 61 !
660760874:1:app:recv:25:Hello 61 !
670469507:25:app:send:Hello 62 !
670760749:1:app:recv:25:Hello 62 !
680469507:25:app:send:Hello 63 !
680762044:1:app:recv:25:Hello 63 !
690469507:25:app:send:Hello 64 !
690760749:1:app:recv:25:Hello 64 !
700469507:25:app:send:Hello 65 !
700760744:1:app:recv:25:Hello 65 !
710469507:25:app:send:Hello 66 !
710761973:1:app:recv:25:Hello 66 !
720469507:25:app:send:Hello 67 !
720760744:1:app:recv:25:Hello 67 !
730469507:25:app:send:Hello 68 !
730760744:1:app:recv:25:Hello 68 !
740469526:25:app:send:Hello 69 !
740761973:1:app:recv:25:Hello 69 !
750469509:25:app:send:Hello 70 !
750760683:1:app:recv:25:Hello 70 !
760469509:25:app:send:Hello 71 !
760760844:1:app:recv:25:Hello 71 !
770469509:25:app:send:Hello 72 !
770761998:1:app:recv:25:Hello 72 !
780469509:25:app:send:Hello 73 !
781010784:1:app:recv:25:Hello 73 !
790469509:25:app:send:Hello 74 !
790760744:1:app:recv:25:Hello 74 !
800469509:25:app:send:Hello 75 !
800761999:1:app:recv:25:Hello 75 !
810469509:25:app:send:Hello 76 !
810760749:1:app:recv:25:Hello 76 !
820469528:25:app:send:Hello 77 !
820760744:1:app:recv:25:Hello 77 !
830469509:25:app:send:Hello 78 !
830762044:1:app:recv:25:Hello 78 !
840469528:25:app:send:Hello 79 !
840761364:1:app:recv:25:Hello 79 !
850469505:25:app:send:Hello 80 !
850760840:1:app:recv:25:Hello 80 !
860469505:25:app:send:Hello 81 !
860762088:1:app:recv:25:Hello 81 !
870469505:25:app:send:Hello 82 !
870761179:1:app:recv:25:Hello 82 !
880469505:25:app:send:Hello 83 !
880760874:1:app:recv:25:Hello 83 !
890469524:25:app:send:Hello 84 !
890762121:1:app:recv:25:Hello 84 !
900469505:25:app:send:Hello 85 !
900760778:1:app:recv:25:Hello 85 !
910469505:25:app:send:Hello 86 !
910760844:1:app:recv:25:Hello 86 !
920469505:25:app:send:Hello 87 !
920761999:1:app:recv:25:Hello 87 !
930469505:25:app:send:Hello 88 !
930760841:1:app:recv:25:Hello 88 !
940469505:25:app:send:Hello 89 !
941261420:1:app:recv:25:Hello 89 !
950469507:25:app:send:Hello 90 !
950762045:1:app:recv:25:Hello 90 !
960469507:25:app:send:Hello 91 !
960760752:1:app:recv:25:Hello 91 !
970469507:25:app:send:Hello 92 !
970760788:1:app:recv:25:Hello 92 !
980469507:25:app:send:Hello 93 !
980761973:1:app:recv:25:Hello 93 !
990469526:25:app:send:Hello 94 !
990760749:1:app:recv:25:Hello 94 !
1000469507:25:app:send:Hello 95 !
1000760744:1:app:recv:25:Hello 95 !
1010469507:25:app:send:Hello 96 !
1010761998:1:app:recv:25:Hello 96 !
1020469507:25:app:send:Hello 97 !
1020760943:1:app:recv:25:Hello 97 !
1030469507:25:app:send:Hello 98 !
1030760752:1:app:recv:25:Hello 98 !
1040469507:25:app:send:Hello 99 !
1040762267:1:app:recv:25:Hello 99 !
1050469756:25:app:send:Hello 100 !
1050760902:1:app:recv:25:Hello 100 !
1060469771:25:app:send:Hello 101 !
1060761421:1:app:recv:25:Hello 101 !
1070469753:25:app:send:Hello 102 !
1070762067:1:app:recv:25:Hello 102 !
1080469753:25:app:send:Hello 103 !
1080760814:1:app:recv:25:Hello 103 !
1090469753:25:app:send:Hello 104 !
1090761309:1:app:recv:25:Hello 104 !
1100469753:25:app:send:Hello 105 !
1100762041:1:app:recv:25:Hello 105 !
1110469753:25:app:send:Hello 106 !
1110760905:1:app:recv:25:Hello 106 !
1120469753:25:app:send:Hello 107 !
1120761334:1:app:recv:25:Hello 107 !
1130469753:25:app:send:Hello 108 !
1130762067:1:app:recv:25:Hello 108 !
1140469772:25:app:send:Hello 109 !
1140761515:1:app:recv:25:Hello 109 !
1150469755:25:app:send:Hello 110 !
1150761334:1:app:recv:25:Hello 110 !
1160469755:25:app:send:Hello 111 !
1160762041:1:app:recv:25:Hello 111 !
1170469755:25:app:send:Hello 112 !
1170760813:1:app:recv:25:Hello 112 !
1180469755:25:app:send:Hello 113 !
1180761334:1:app:recv:25:Hello 113 !
1190469755:25:app:send:Hello 114 !
1190762041:1:app:recv:25:Hello 114 !
1200469757:25:app:send:Hello 115 !
1200760818:1:app:recv:25:Hello 115 !
1210469757:25:app:send:Hello 116 !
1210761425:1:app:recv:25:Hello 116 !
1220469757:25:app:send:Hello 117 !
1220762127:1:app:recv:25:Hello 117 !
1230469757:25:app:send:Hello 118 !
1230760909:1:app:recv:25:Hello 118 !
1240469757:25:app:send:Hello 119 !
1240761423:1:app:recv:25:Hello 119 !
1250469755:25:app:send:Hello 120 !
1250762041:1:app:recv:25:Hello 120 !
1260469755:25:app:send:Hello 121 !
1260761422:1:app:recv:25:Hello 121 !
1270469774:25:app:send:Hello 122 !
1270761332:1:app:recv:25:Hello 122 !
1280469755:25:app:send:Hello 123 !
1280762113:1:app:recv:25:Hello 123 !
1290469755:25:app:send:Hello 124 !
1290760913:1:app:recv:25:Hello 124 !
1300469755:25:app:send:Hello 125 !
1300761332:1:app:recv:25:Hello 125 !
1310469755:25:app:send:Hello 126 !
1310762066:1:app:recv:25:Hello 126 !
1320469755:25:app:send:Hello 127 !
1320761332:1:app:recv:25:Hello 127 !
1330469755:25:app:send:Hello 128 !
1330761422:1:app:recv:25:Hello 128 !
1340469755:25:app:send:Hello 129 !
1340762041:1:app:recv:25:Hello 129 !
1350469757:25:app:send:Hello 130 !
1350760913:1:app:recv:25:Hello 130 !
1360469757:25:app:send:Hello 131 !
1360761332:1:app:recv:25:Hello 131 !
1370469776:25:app:send:Hello 132 !
1370762159:1:app:recv:25:Hello 132 !
1380469757:25:app:send:Hello 133 !
1380760821:1:app:recv:25:Hello 133 !
1390469757:25:app:send:Hello 134 !
1390761332:1:app:recv:25:Hello 134 !
1400469757:25:app:send:Hello 135 !
1400762041:1:app:recv:25:Hello 135 !
1410469757:25:app:send:Hello 136 !
1410760821:1:app:recv:25:Hello 136 !
1420469757:25:app:send:Hello 137 !
1420761332:1:app:recv:25:Hello 137 !
1430469776:25:app:send:Hello 138 !
1430762041:1:app:recv:25:Hello 138 !
1440469757:25:app:send:Hello 139 !
1440761332:1:app:recv:25:Hello 139 !
1450469757:25:app:send:Hello 140 !
1450761422:1:app:recv:25:Hello 140 !
1460469757:25:app:send:Hello 141 !
1460762156:1:app:recv:25:Hello 141 !
1470469757:25:app:send:Hello 142 !
1470761302:1:app:recv:25:Hello 142 !
1480469757:25:app:send:Hello 143 !
1480761516:1:app:recv:25:Hello 143 !
1490469757:25:app:send:Hello 144 !
1490762218:1:app:recv:25:Hello 144 !
1500469757:25:app:send:Hello 145 !
1500761302:1:app:recv:25:Hello 145 !
1510469757:25:app:send:Hello 146 !
1510761332:1:app:recv:25:Hello 146 !
1520469757:25:app:send:Hello 147 !
1520762041:1:app:recv:25:Hello 147 !
1530469757:25:app:send:Hello 148 !
1530760913:1:app:recv:25:Hello 148 !
1540469757:25:app:send:Hello 149 !
1540761332:1:app:recv:25:Hello 149 !
1550469759:25:app:send:Hello 150 !
1550762041:1:app:recv:25:Hello 150 !
1560469759:25:app:send:Hello 151 !
1560760821:1:app:recv:25:Hello 151 !
1570469778:25:app:send:Hello 152 !
1570761426:1:app:recv:25:Hello 152 !
1580469760:25:app:send:Hello 153 !
1580762113:1:app:recv:25:Hello 153 !
1590469760:25:app:send:Hello 154 !
1590761423:1:app:recv:25:Hello 154 !
1600469760:25:app:send:Hello 155 !
1600761423:1:app:recv:25:Hello 155 !
1610469760:25:app:send:Hello 156 !
1610762048:1:app:recv:25:Hello 156 !
1620469760:25:app:send:Hello 157 !
1620760814:1:app:recv:25:Hello 157 !
1630469760:25:app:send:Hello 158 !
1630762316:1:app:recv:25:Hello 158 !
1640469760:25:app:send:Hello 159 !
1640762549:1:app:recv:25:Hello 159 !
1650469754:25:app:send:Hello 160 !
1650761334:1:app:recv:25:Hello 160 !
1660469754:25:app:send:Hello 161 !
1660761432:1:app:recv:25:Hello 161 !
1670469754:25:app:send:Hello 162 !
1670762187:1:app:recv:25:Hello 162 !
1680469754:25:app:send:Hello 163 !
1680761351:1:app:recv:25:Hello 163 !
1690469754:25:app:send:Hello 164 !
1690761351:1:app:recv:25:Hello 164 !
1700469754:25:app:send:Hello 165 !
1700762065:1:app:recv:25:Hello 165 !
1710469774:25:app:send:Hello 166 !
1710761427:1:app:recv:25:Hello 166 !
1720469774:25:app:send:Hello 167 !
1720761556:1:app:recv:25:Hello 167 !
1730469754:25:app:send:Hello 168 !
1730762216:1:app:recv:25:Hello 168 !
1740469754:25:app:send:Hello 169 !
1740761425:1:app:recv:25:Hello 169 !
1750469756:25:app:send:Hello 170 !
1750761351:1:app:recv:25:Hello 170 !
1760469756:25:app:send:Hello 171 !
1760762386:1:app:recv:25:Hello 171 !
1770469756:25:app:send:Hello 172 !
1770760846:1:app:recv:25:Hello 172 !
1780469756:25:app:send:Hello 173 !
1780761462:1:app:recv:25:Hello 173 !
1790469756:25:app:send:Hello 174 !
1790762048:1:app:recv:25:Hello 174 !
TEST OK
Test ended at simulation time: 1800000000
