Random seed: 364454
326257:8:Rime started with address 0.18.116.8.0.8.8.8
329262:14:Rime started with address 0.18.116.14.0.14.14.14
334570:8:MAC 00:12:74:08:00:08:08:08 Contiki 3.0 started. Node id is set to 8.
337564:14:MAC 00:12:74:0e:00:0e:0e:0e Contiki 3.0 started. Node id is set to 14.
343087:8:nullsec CSMA ContikiMAC, channel check rate 8 Hz, radio channel 26, CCA threshold -45
346153:14:nullsec CSMA ContikiMAC, channel check rate 8 Hz, radio channel 26, CCA threshold -45
355424:8:Tentative link-local IPv6 address fe80:0000:0000:0000:0212:7408:0008:0808
357471:8:Starting 'UDP client process'
358495:14:Tentative link-local IPv6 address fe80:0000:0000:0000:0212:740e:000e:0e0e
359530:8:UDP client process started
360558:14:Starting 'UDP client process'
362537:14:UDP client process started
363965:8:Client IPv6 addresses: fe80::212:7408:8:808
366982:14:Client IPv6 addresses: fe80::212:740e:e:e0e
372342:22:Rime started with address 0.18.116.22.0.22.22.22
381008:22:MAC 00:12:74:16:00:16:16:16 Contiki 3.0 started. Node id is set to 22.
389525:22:nullsec CSMA ContikiMAC, channel check rate 8 Hz, radio channel 26, CCA threshold -45
401268:13:Rime started with address 0.18.116.13.0.13.13.13
402015:12:Rime started with address 0.18.116.12.0.12.12.12
402222:22:Tentative link-local IPv6 address fe80:0000:0000:0000:0212:7416:0016:1616
404268:22:Starting 'UDP client process'
406247:22:UDP client process started
408961:6:Rime started with address 0.18.116.6.0.6.6.6
409565:13:MAC 00:12:74:0d:00:0d:0d:0d Contiki 3.0 started. Node id is set to 13.
410314:12:MAC 00:12:74:0c:00:0c:0c:0c Contiki 3.0 started. Node id is set to 12.
410954:22:Client IPv6 addresses: fe80::212:7416:16:1616
417270:6:MAC 00:12:74:06:00:06:06:06 Contiki 3.0 started. Node id is set to 6.
418155:13:nullsec CSMA ContikiMAC, channel check rate 8 Hz, radio channel 26, CCA threshold -45
418904:12:nullsec CSMA ContikiMAC, channel check rate 8 Hz, radio channel 26, CCA threshold -45
425787:6:nullsec CSMA ContikiMAC, channel check rate 8 Hz, radio channel 26, CCA threshold -45
430496:13:Tentative link-local IPv6 address fe80:0000:0000:0000:0212:740d:000d:0d0d
431246:12:Tentative link-local IPv6 address fe80:0000:0000:0000:0212:740c:000c:0c0c
432543:13:Starting 'UDP client process'
433292:12:Starting 'UDP client process'
434522:13:UDP client process started
435271:12:UDP client process started
436773:1:Rime started with address 0.18.116.1.0.1.1.1
438015:19:Rime started with address 0.18.116.19.0.19.19.19
438125:6:Tentative link-local IPv6 address fe80:0000:0000:0000:0212:7406:0006:0606
438967:13:Client IPv6 addresses: fe80::212:740d:d:d0d
439714:12:Client IPv6 addresses: fe80::212:740c:c:c0c
440172:6:Starting 'UDP client process'
442231:6:UDP client process started
445083:1:MAC 00:12:74:01:00:01:01:01 Contiki 3.0 started. Node id is set to 1.
446668:6:Client IPv6 addresses: fe80::212:7406:6:606
446682:19:MAC 00:12:74:13:00:13:13:13 Contiki 3.0 started. Node id is set to 19.
453600:1:nullsec CSMA ContikiMAC, channel check rate 8 Hz, radio channel 26, CCA threshold -45
455202:19:nullsec CSMA ContikiMAC, channel check rate 8 Hz, radio channel 26, CCA threshold -45
465938:1:Tentative link-local IPv6 address fe80:0000:0000:0000:0212:7401:0001:0101
467897:19:Tentative link-local IPv6 address fe80:0000:0000:0000:0212:7413:0013:1313
467984:1:Starting 'UDP server process'
469529:1:UDP server started
469944:19:Starting 'UDP client process'
471923:19:UDP client process started
473642:1:created a new RPL dag
475414:1:Server IPv6 addresses: ::
475618:1:::
476645:19:Client IPv6 addresses: fe80::212:7413:13:1313
478550:1:bbbb::212:7401:1:101
479617:1:bbbb::1
482493:1:fe80::212:7401:1:101
488626:1:Created a server connection with remote address :: local/remote port 5678/8765
495394:23:Rime started with address 0.18.116.23.0.23.23.23
504058:23:MAC 00:12:74:17:00:17:17:17 Contiki 3.0 started. Node id is set to 23.
512583:23:nullsec CSMA ContikiMAC, channel check rate 8 Hz, radio channel 26, CCA threshold -45
525281:23:Tentative link-local IPv6 address fe80:0000:0000:0000:0212:7417:0017:1717
527329:23:Starting 'UDP client process'
529308:23:UDP client process started
534026:23:Client IPv6 addresses: fe80::212:7417:17:1717
572970:24:Rime started with address 0.18.116.24.0.24.24.24
581634:24:MAC 00:12:74:18:00:18:18:18 Contiki 3.0 started. Node id is set to 24.
590151:24:nullsec CSMA ContikiMAC, channel check rate 8 Hz, radio channel 26, CCA threshold -45
602848:24:Tentative link-local IPv6 address fe80:0000:0000:0000:0212:7418:0018:1818
604894:24:Starting 'UDP client process'
606873:24:UDP client process started
611578:24:Client IPv6 addresses: fe80::212:7418:18:1818
667303:21:Rime started with address 0.18.116.21.0.21.21.21
675967:21:MAC 00:12:74:15:00:15:15:15 Contiki 3.0 started. Node id is set to 21.
684492:21:nullsec CSMA ContikiMAC, channel check rate 8 Hz, radio channel 26, CCA threshold -45
697189:21:Tentative link-local IPv6 address fe80:0000:0000:0000:0212:7415:0015:1515
699235:21:Starting 'UDP client process'
701215:21:UDP client process started
705936:21:Client IPv6 addresses: fe80::212:7415:15:1515
706690:11:Rime started with address 0.18.116.11.0.11.11.11
714994:11:MAC 00:12:74:0b:00:0b:0b:0b Contiki 3.0 started. Node id is set to 11.
718332:3:Rime started with address 0.18.116.3.0.3.3.3
723583:11:nullsec CSMA ContikiMAC, channel check rate 8 Hz, radio channel 26, CCA threshold -45
723637:16:Rime started with address 0.18.116.16.0.16.16.16
726636:3:MAC 00:12:74:03:00:03:03:03 Contiki 3.0 started. Node id is set to 3.
732306:16:MAC 00:12:74:10:00:10:10:10 Contiki 3.0 started. Node id is set to 16.
735153:3:nullsec CSMA ContikiMAC, channel check rate 8 Hz, radio channel 26, CCA threshold -45
735925:11:Tentative link-local IPv6 address fe80:0000:0000:0000:0212:740b:000b:0b0b
737988:11:Starting 'UDP client process'
739967:11:UDP client process started
740831:16:nullsec CSMA ContikiMAC, channel check rate 8 Hz, radio channel 26, CCA threshold -45
744412:11:Client IPv6 addresses: fe80::212:740b:b:b0b
747491:3:Tentative link-local IPv6 address fe80:0000:0000:0000:0212:7403:0003:0303
749538:3:Starting 'UDP client process'
751597:3:UDP client process started
753528:16:Tentative link-local IPv6 address fe80:0000:0000:0000:0212:7410:0010:1010
755576:16:Starting 'UDP client process'
756034:3:Client IPv6 addresses: fe80::212:7403:3:303
757555:16:UDP client process started
762273:16:Client IPv6 addresses: fe80::212:7410:10:1010
792425:25:Rime started with address 0.18.116.25.0.25.25.25
801089:25:MAC 00:12:74:19:00:19:19:19 Contiki 3.0 started. Node id is set to 25.
809613:25:nullsec CSMA ContikiMAC, channel check rate 8 Hz, radio channel 26, CCA threshold -45
822308:25:Tentative link-local IPv6 address fe80:0000:0000:0000:0212:7419:0019:1919
824354:25:Starting 'UDP client process'
826339:25:UDP client process started
831057:25:Client IPv6 addresses: fe80::212:7419:19:1919
833048:18:Rime started with address 0.18.116.18.0.18.18.18
836444:25:Created a connection with the server :: local/remote port 8765/5678
841712:18:MAC 00:12:74:12:00:12:12:12 Contiki 3.0 started. Node id is set to 18.
850237:18:nullsec CSMA ContikiMAC, channel check rate 8 Hz, radio channel 26, CCA threshold -45
862934:18:Tentative link-local IPv6 address fe80:0000:0000:0000:0212:7412:0012:1212
864982:18:Starting 'UDP client process'
866961:18:UDP client process started
871679:18:Client IPv6 addresses: fe80::212:7412:12:1212
879507:17:Rime started with address 0.18.116.17.0.17.17.17
888171:17:MAC 00:12:74:11:00:11:11:11 Contiki 3.0 started. Node id is set to 17.
896687:17:nullsec CSMA ContikiMAC, channel check rate 8 Hz, radio channel 26, CCA threshold -45
909382:17:Tentative link-local IPv6 address fe80:0000:0000:0000:0212:7411:0011:1111
911429:17:Starting 'UDP client process'
913408:17:UDP client process started
918112:17:Client IPv6 addresses: fe80::212:7411:11:1111
939276:4:Rime started with address 0.18.116.4.0.4.4.4
947584:4:MAC 00:12:74:04:00:04:04:04 Contiki 3.0 started. Node id is set to 4.
949480:5:Rime started with address 0.18.116.5.0.5.5.5
956101:4:nullsec CSMA ContikiMAC, channel check rate 8 Hz, radio channel 26, CCA threshold -45
957783:5:MAC 00:12:74:05:00:05:05:05 Contiki 3.0 started. Node id is set to 5.
966300:5:nullsec CSMA ContikiMAC, channel check rate 8 Hz, radio channel 26, CCA threshold -45
968439:4:Tentative link-local IPv6 address fe80:0000:0000:0000:0212:7404:0004:0404
970486:4:Starting 'UDP client process'
972545:4:UDP client process started
976980:4:Client IPv6 addresses: fe80::212:7404:4:404
978637:5:Tentative link-local IPv6 address fe80:0000:0000:0000:0212:7405:0005:0505
980684:5:Starting 'UDP client process'
982743:5:UDP client process started
987180:5:Client IPv6 addresses: fe80::212:7405:5:505
1004453:9:Rime started with address 0.18.116.9.0.9.9.9
1012761:9:MAC 00:12:74:09:00:09:09:09 Contiki 3.0 started. Node id is set to 9.
1021279:9:nullsec CSMA ContikiMAC, channel check rate 8 Hz, radio channel 26, CCA threshold -45
1033614:9:Tentative link-local IPv6 address fe80:0000:0000:0000:0212:7409:0009:0909
1035661:9:Starting 'UDP client process'
1035738:7:Rime started with address 0.18.116.7.0.7.7.7
1037720:9:UDP client process started
1042157:9:Client IPv6 addresses: fe80::212:7409:9:909
1044048:7:MAC 00:12:74:07:00:07:07:07 Contiki 3.0 started. Node id is set to 7.
1052565:7:nullsec CSMA ContikiMAC, channel check rate 8 Hz, radio channel 26, CCA threshold -45
1064903:7:Tentative link-local IPv6 address fe80:0000:0000:0000:0212:7407:0007:0707
1066950:7:Starting 'UDP client process'
1069009:7:UDP client process started
1073448:7:Client IPv6 addresses: fe80::212:7407:7:707
1090305:15:Rime started with address 0.18.116.15.0.15.15.15
1098611:15:MAC 00:12:74:0f:00:0f:0f:0f Contiki 3.0 started. Node id is set to 15.
1107201:15:nullsec CSMA ContikiMAC, channel check rate 8 Hz, radio channel 26, CCA threshold -45
1119543:15:Tentative link-local IPv6 address fe80:0000:0000:0000:0212:740f:000f:0f0f
1121600:15:Starting 'UDP client process'
1123579:15:UDP client process started
1128026:15:Client IPv6 addresses: fe80::212:740f:f:f0f
1201973:20:Rime started with address 0.18.116.20.0.20.20.20
1210639:20:MAC 00:12:74:14:00:14:14:14 Contiki 3.0 started. Node id is set to 20.
1219164:20:nullsec CSMA ContikiMAC, channel check rate 8 Hz, radio channel 26, CCA threshold -45
1231860:20:Tentative link-local IPv6 address fe80:0000:0000:0000:0212:7414:0014:1414
1233906:20:Starting 'UDP client process'
1235885:20:UDP client process started
1240590:20:Client IPv6 addresses: fe80::212:7414:14:1414
1250380:10:Rime started with address 0.18.116.10.0.10.10.10
1258684:10:MAC 00:12:74:0a:00:0a:0a:0a Contiki 3.0 started. Node id is set to 10.
1267179:2:Rime started with address 0.18.116.2.0.2.2.2
1267273:10:nullsec CSMA ContikiMAC, channel check rate 8 Hz, radio channel 26, CCA threshold -45
1275490:2:MAC 00:12:74:02:00:02:02:02 Contiki 3.0 started. Node id is set to 2.
1279615:10:Tentative link-local IPv6 address fe80:0000:0000:0000:0212:740a:000a:0a0a
1281662:10:Starting 'UDP client process'
1283641:10:UDP client process started
1284007:2:nullsec CSMA ContikiMAC, channel check rate 8 Hz, radio channel 26, CCA threshold -45
1288084:10:Client IPv6 addresses: fe80::212:740a:a:a0a
1296345:2:Tentative link-local IPv6 address fe80:0000:0000:0000:0212:7402:0002:0202
1298392:2:Starting 'UDP client process'
1300451:2:UDP client process started
1304886:2:Client IPv6 addresses: fe80::212:7402:2:202
60833271:25:app:send:Hello 1 !
61136203:1:app:recv:25:Hello 1 !
61759347:1:app:recv:25:Hello 1 !
70833233:25:app:send:Hello 2 !
73387469:1:app:recv:25:Hello 2 !
80833252:25:app:send:Hello 3 !
81260772:1:app:recv:25:Hello 3 !
90833252:25:app:send:Hello 4 !
91385017:1:app:recv:25:Hello 4 !
100833233:25:app:send:Hello 5 !
101636577:1:app:recv:25:Hello 5 !
110833233:25:app:send:Hello 6 !
112884650:1:app:recv:25:Hello 6 !
120833252:25:app:send:Hello 7 !
121262499:1:app:recv:25:Hello 7 !
130833233:25:app:send:Hello 8 !
132259129:1:app:recv:25:Hello 8 !
140833285:25:app:send:Hello 9 !
141634129:1:app:recv:25:Hello 9 !
150833571:25:app:send:Hello 10 !
151762795:1:app:recv:25:Hello 10 !
160833480:25:app:send:Hello 11 !
161134806:1:app:recv:25:Hello 11 !
170833480:25:app:send:Hello 12 !
171511939:1:app:recv:25:Hello 12 !
180833480:25:app:send:Hello 13 !
181759089:1:app:recv:25:Hello 13 !
190833480:25:app:send:Hello 14 !
191138974:1:app:recv:25:Hello 14 !
200833480:25:app:send:Hello 15 !
201766374:1:app:recv:25:Hello 15 !
210833480:25:app:send:Hello 16 !
211262509:1:app:recv:25:Hello 16 !
220833480:25:app:send:Hello 17 !
222133020:1:app:recv:25:Hello 17 !
230833499:25:app:send:Hello 18 !
231887650:1:app:recv:25:Hello 18 !
240833480:25:app:send:Hello 19 !
241511515:1:app:recv:25:Hello 19 !
250833480:25:app:send:Hello 20 !
251637340:1:app:recv:25:Hello 20 !
260833533:25:app:send:Hello 21 !
261762035:1:app:recv:25:Hello 21 !
270833480:25:app:send:Hello 22 !
271511334:1:app:recv:25:Hello 22 !
280833499:25:app:send:Hello 23 !
281510878:1:app:recv:25:Hello 23 !
290833480:25:app:send:Hello 24 !
292011940:1:app:recv:25:Hello 24 !
300833499:25:app:send:Hello 25 !
301511366:1:app:recv:25:Hello 25 !
310833480:25:app:send:Hello 26 !
311636234:1:app:recv:25:Hello 26 !
320833480:25:app:send:Hello 27 !
321260813:1:app:recv:25:Hello 27 !
330833480:25:app:send:Hello 28 !
331134714:1:app:recv:25:Hello 28 !
340833480:25:app:send:Hello 29 !
342011368:1:app:recv:25:Hello 29 !
350833482:25:app:send:Hello 30 !
351135910:1:app:recv:25:Hello 30 !
360833482:25:app:send:Hello 31 !
361637500:1:app:recv:25:Hello 31 !
370833501:25:app:send:Hello 32 !
371134776:1:app:recv:25:Hello 32 !
380833482:25:app:send:Hello 33 !
381516238:1:app:recv:25:Hello 33 !
390833482:25:app:send:Hello 34 !
391760570:1:app:recv:25:Hello 34 !
400833482:25:app:send:Hello 35 !
402384379:1:app:recv:25:Hello 35 !
410833482:25:app:send:Hello 36 !
411261450:1:app:recv:25:Hello 36 !
420833482:25:app:send:Hello 37 !
421758221:1:app:recv:25:Hello 37 !
430833482:25:app:send:Hello 38 !
431265632:1:app:recv:25:Hello 38 !
440833482:25:app:send:Hello 39 !
441135997:1:app:recv:25:Hello 39 !
450833480:25:app:send:Hello 40 !
451136092:1:app:recv:25:Hello 40 !
460833480:25:app:send:Hello 41 !
461261368:1:app:recv:25:Hello 41 !
470833480:25:app:send:Hello 42 !
472009657:1:app:recv:25:Hello 42 !
480833499:25:app:send:Hello 43 !
481258005:1:app:recv:25:Hello 43 !
490833552:25:app:send:Hello 44 !
491509189:1:app:recv:25:Hello 44 !
500833480:25:app:send:Hello 45 !
502261691:1:app:recv:25:Hello 45 !
510833480:25:app:send:Hello 46 !
511634155:1:app:recv:25:Hello 46 !
520833480:25:app:send:Hello 47 !
521632806:1:app:recv:25:Hello 47 !
530833480:25:app:send:Hello 48 !
531386636:1:app:recv:25:Hello 48 !
540833499:25:app:send:Hello 49 !
542512498:1:app:recv:25:Hello 49 !
550833482:25:app:send:Hello 50 !
551760933:1:app:recv:25:Hello 50 !
560833482:25:app:send:Hello 51 !
561260838:1:app:recv:25:Hello 51 !
570833482:25:app:send:Hello 52 !
571511055:1:app:recv:25:Hello 52 !
580833482:25:app:send:Hello 53 !
582132805:1:app:recv:25:Hello 53 !
590833482:25:app:send:Hello 54 !
591135933:1:app:recv:25:Hello 54 !
600833501:25:app:send:Hello 55 !
601136001:1:app:recv:25:Hello 55 !
610833482:25:app:send:Hello 56 !
611134711:1:app:recv:25:Hello 56 !
620833482:25:app:send:Hello 57 !
621135838:1:app:recv:25:Hello 57 !
630833482:25:app:send:Hello 58 !
631759778:1:app:recv:25:Hello 58 !
640833482:25:app:send:Hello 59 !
641510878:1:app:recv:25:Hello 59 !
650833482:25:app:send:Hello 60 !
651635848:1:app:recv:25:Hello 60 !
660833482:25:app:send:Hello 61 !
661135908:1:app:recv:25:Hello 61 !
670833482:25:app:send:Hello 62 !
671884043:1:app:recv:25:Hello 62 !
680833501:25:app:send:Hello 63 !
681387512:1:app:recv:25:Hello 63 !
690833482:25:app:send:Hello 64 !
691135905:1:app:recv:25:Hello 64 !
700833482:25:app:send:Hello 65 !
701885876:1:app:recv:25:Hello 65 !
710833482:25:app:send:Hello 66 !
711260815:1:app:recv:25:Hello 66 !
720833482:25:app:send:Hello 67 !
721511055:1:app:recv:25:Hello 67 !
730833482:25:app:send:Hello 68 !
732137512:1:app:recv:25:Hello 68 !
740833482:25:app:send:Hello 69 !
741135813:1:app:recv:25:Hello 69 !
750833484:25:app:send:Hello 70 !
751632731:1:app:recv:25:Hello 70 !
760833484:25:app:send:Hello 71 !
761884012:1:app:recv:25:Hello 71 !
770833484:25:app:send:Hello 72 !
771135838:1:app:recv:25:Hello 72 !
780833484:25:app:send:Hello 73 !
781887604:1:app:recv:25:Hello 73 !
790833484:25:app:send:Hello 74 !
791510907:1:app:recv:25:Hello 74 !
800833484:25:app:send:Hello 75 !
801762512:1:app:recv:25:Hello 75 !
810833484:25:app:send:Hello 76 !
812012512:1:app:recv:25:Hello 76 !
820833503:25:app:send:Hello 77 !
821636274:1:app:recv:25:Hello 77 !
830833484:25:app:send:Hello 78 !
831766265:1:app:recv:25:Hello 78 !
840833484:25:app:send:Hello 79 !
841257745:1:app:recv:25:Hello 79 !
850833499:25:app:send:Hello 80 !
851134839:1:app:recv:25:Hello 80 !
860833480:25:app:send:Hello 81 !
861260908:1:app:recv:25:Hello 81 !
870833480:25:app:send:Hello 82 !
871136055:1:app:recv:25:Hello 82 !
880833480:25:app:send:Hello 83 !
881135175:1:app:recv:25:Hello 83 !
890833480:25:app:send:Hello 84 !
891135838:1:app:recv:25:Hello 84 !
900833480:25:app:send:Hello 85 !
902257806:1:app:recv:25:Hello 85 !
910833480:25:app:send:Hello 86 !
912258448:1:app:recv:25:Hello 86 !
920833480:25:app:send:Hello 87 !
921135933:1:app:recv:25:Hello 87 !
930833480:25:app:send:Hello 88 !
931262402:1:app:recv:25:Hello 88 !
940833480:25:app:send:Hello 89 !
941509020:1:app:recv:25:Hello 89 !
950833482:25:app:send:Hello 90 !
951512743:1:app:recv:25:Hello 90 !
960833482:25:app:send:Hello 91 !
961135905:1:app:recv:25:Hello 91 !
970833482:25:app:send:Hello 92 !
972386365:1:app:recv:25:Hello 92 !
980833482:25:app:send:Hello 93 !
981511483:1:app:recv:25:Hello 93 !
990833482:25:app:send:Hello 94 !
991134680:1:app:recv:25:Hello 94 !
1000833482:25:app:send:Hello 95 !
1001261354:1:app:recv:25:Hello 95 !
1010833501:25:app:send:Hello 96 !
1011636456:1:app:recv:25:Hello 96 !
1020833482:25:app:send:Hello 97 !
1021261939:1:app:recv:25:Hello 97 !
1030833482:25:app:send:Hello 98 !
1031134680:1:app:recv:25:Hello 98 !
1040833482:25:app:send:Hello 99 !
1041515656:1:app:recv:25:Hello 99 !
1050833731:25:app:send:Hello 100 !
1051760486:1:app:recv:25:Hello 100 !
1060833746:25:app:send:Hello 101 !
1062009266:1:app:recv:25:Hello 101 !
1070833728:25:app:send:Hello 102 !
1071136002:1:app:recv:25:Hello 102 !
1080833747:25:app:send:Hello 103 !
1081136337:1:app:recv:25:Hello 103 !
1090833728:25:app:send:Hello 104 !
1091633085:1:app:recv:25:Hello 104 !
1100833728:25:app:send:Hello 105 !
1101386215:1:app:recv:25:Hello 105 !
1110833728:25:app:send:Hello 106 !
1111136124:1:app:recv:25:Hello 106 !
1120833728:25:app:send:Hello 107 !
1121510306:1:app:recv:25:Hello 107 !
1130833728:25:app:send:Hello 108 !
1131136002:1:app:recv:25:Hello 108 !
1140833728:25:app:send:Hello 109 !
1141509110:1:app:recv:25:Hello 109 !
1150833730:25:app:send:Hello 110 !
1151387580:1:app:recv:25:Hello 110 !
1160833750:25:app:send:Hello 111 !
1161136002:1:app:recv:25:Hello 111 !
1170833730:25:app:send:Hello 112 !
1171136124:1:app:recv:25:Hello 112 !
1180833730:25:app:send:Hello 113 !
1181135306:1:app:recv:25:Hello 113 !
1190833732:25:app:send:Hello 114 !
1192137604:1:app:recv:25:Hello 114 !
1200833732:25:app:send:Hello 115 !
1201144803:1:app:recv:25:Hello 115 !
1210833732:25:app:send:Hello 116 !
1211510181:1:app:recv:25:Hello 116 !
1220833732:25:app:send:Hello 117 !
1221136002:1:app:recv:25:Hello 117 !
1230833732:25:app:send:Hello 118 !
1231758515:1:app:recv:25:Hello 118 !
1240833732:25:app:send:Hello 119 !
1241135306:1:app:recv:25:Hello 119 !
1250833730:25:app:send:Hello 120 !
1252136242:1:app:recv:25:Hello 120 !
1260833730:25:app:send:Hello 121 !
1261136124:1:app:recv:25:Hello 121 !
1270833730:25:app:send:Hello 122 !
1271634156:1:app:recv:25:Hello 122 !
1280833730:25:app:send:Hello 123 !
1281135971:1:app:recv:25:Hello 123 !
1290833730:25:app:send:Hello 124 !
1291136337:1:app:recv:25:Hello 124 !
1300833730:25:app:send:Hello 125 !
1301135885:1:app:recv:25:Hello 125 !
1310833730:25:app:send:Hello 126 !
1311636367:1:app:recv:25:Hello 126 !
1320833730:25:app:send:Hello 127 !
1322011431:1:app:recv:25:Hello 127 !
1330833749:25:app:send:Hello 128 !
1331135391:1:app:recv:25:Hello 128 !
1340833730:25:app:send:Hello 129 !
1341136093:1:app:recv:25:Hello 129 !
1350833732:25:app:send:Hello 130 !
1351136124:1:app:recv:25:Hello 130 !
1360833732:25:app:send:Hello 131 !
1361139591:1:app:recv:25:Hello 131 !
1370833732:25:app:send:Hello 132 !
1371633055:1:app:recv:25:Hello 132 !
1380833732:25:app:send:Hello 133 !
1381136124:1:app:recv:25:Hello 133 !
1390833732:25:app:send:Hello 134 !
1391135151:1:app:recv:25:Hello 134 !
1400833732:25:app:send:Hello 135 !
1401135971:1:app:recv:25:Hello 135 !
1410833751:25:app:send:Hello 136 !
1411136215:1:app:recv:25:Hello 136 !
1420833732:25:app:send:Hello 137 !
1421635977:1:app:recv:25:Hello 137 !
1430833732:25:app:send:Hello 138 !
1431136002:1:app:recv:25:Hello 138 !
1440833732:25:app:send:Hello 139 !
1442384356:1:app:recv:25:Hello 139 !
1450833732:25:app:send:Hello 140 !
1451634252:1:app:recv:25:Hello 140 !
1460833732:25:app:send:Hello 141 !
1461511432:1:app:recv:25:Hello 141 !
1470833732:25:app:send:Hello 142 !
1471136337:1:app:recv:25:Hello 142 !
1480833732:25:app:send:Hello 143 !
1483511343:1:app:recv:25:Hello 143 !
1490833732:25:app:send:Hello 144 !
1491136002:1:app:recv:25:Hello 144 !
1500833732:25:app:send:Hello 145 !
1501136124:1:app:recv:25:Hello 145 !
1510833751:25:app:send:Hello 146 !
1511387580:1:app:recv:25:Hello 146 !
1520833732:25:app:send:Hello 147 !
1521140273:1:app:recv:25:Hello 147 !
1530833732:25:app:send:Hello 148 !
1531508441:1:app:recv:25:Hello 148 !
1540833732:25:app:send:Hello 149 !
1541636463:1:app:recv:25:Hello 149 !
1550833734:25:app:send:Hello 150 !
1551512566:1:app:recv:25:Hello 150 !
1560833734:25:app:send:Hello 151 !
1561636555:1:app:recv:25:Hello 151 !
1570833734:25:app:send:Hello 152 !
1572134068:1:app:recv:25:Hello 152 !
1580833735:25:app:send:Hello 153 !
1581136002:1:app:recv:25:Hello 153 !
1590833735:25:app:send:Hello 154 !
1591635916:1:app:recv:25:Hello 154 !
1600833735:25:app:send:Hello 155 !
1602012565:1:app:recv:25:Hello 155 !
1610833735:25:app:send:Hello 156 !
1611136341:1:app:recv:25:Hello 156 !
1620833735:25:app:send:Hello 157 !
1621636677:1:app:recv:25:Hello 157 !
1630833735:25:app:send:Hello 158 !
1632138182:1:app:recv:25:Hello 158 !
1640833735:25:app:send:Hello 159 !
1641512223:1:app:recv:25:Hello 159 !
1650833729:25:app:send:Hello 160 !
1651136857:1:app:recv:25:Hello 160 !
1660833729:25:app:send:Hello 161 !
1661135885:1:app:recv:25:Hello 161 !
1670833749:25:app:send:Hello 162 !
1671635334:1:app:recv:25:Hello 162 !
1680833729:25:app:send:Hello 163 !
1681136337:1:app:recv:25:Hello 163 !
1690833729:25:app:send:Hello 164 !
1691135488:1:app:recv:25:Hello 164 !
1700833729:25:app:send:Hello 165 !
1701137007:1:app:recv:25:Hello 165 !
1710833749:25:app:send:Hello 166 !
1711389656:1:app:recv:25:Hello 166 !
1720833729:25:app:send:Hello 167 !
1722137223:1:app:recv:25:Hello 167 !
1730833729:25:app:send:Hello 168 !
1731516310:1:app:recv:25:Hello 168 !
1740833729:25:app:send:Hello 169 !
1741136123:1:app:recv:25:Hello 169 !
1750833731:25:app:send:Hello 170 !
1752011585:1:app:recv:25:Hello 170 !
1760833731:25:app:send:Hello 171 !
1761136001:1:app:recv:25:Hello 171 !
1770833731:25:app:send:Hello 172 !
1772638184:1:app:recv:25:Hello 172 !
1780833731:25:app:send:Hello 173 !
1781135885:1:app:recv:25:Hello 173 !
1790833731:25:app:send:Hello 174 !
1791634842:1:app:recv:25:Hello 174 !
TEST OK
Test ended at simulation time: 1800000000
