Random seed: 640369
298109:16:Rime started with address 0.18.116.16.0.16.16.16
306778:16:MAC 00:12:74:10:00:10:10:10 Contiki 3.0 started. Node id is set to 16.
315303:16:nullsec CSMA ContikiMAC, channel check rate 8 Hz, radio channel 26, CCA threshold -45
316485:9:Rime started with address 0.18.116.9.0.9.9.9
324793:9:MAC 00:12:74:09:00:09:09:09 Contiki 3.0 started. Node id is set to 9.
328000:16:Tentative link-local IPv6 address fe80:0000:0000:0000:0212:7410:0010:1010
330048:16:Starting 'UDP client process'
332027:16:UDP client process started
333311:9:nullsec CSMA ContikiMAC, channel check rate 8 Hz, radio channel 26, CCA threshold -45
336745:16:Client IPv6 addresses: fe80::212:7410:10:1010
345646:9:Tentative link-local IPv6 address fe80:0000:0000:0000:0212:7409:0009:0909
347693:9:Starting 'UDP client process'
349752:9:UDP client process started
354189:9:Client IPv6 addresses: fe80::212:7409:9:909
396072:25:Rime started with address 0.18.116.25.0.25.25.25
397568:23:Rime started with address 0.18.116.23.0.23.23.23
404736:25:MAC 00:12:74:19:00:19:19:19 Contiki 3.0 started. Node id is set to 25.
406232:23:MAC 00:12:74:17:00:17:17:17 Contiki 3.0 started. Node id is set to 23.
413260:25:nullsec CSMA ContikiMAC, channel check rate 8 Hz, radio channel 26, CCA threshold -45
414757:23:nullsec CSMA ContikiMAC, channel check rate 8 Hz, radio channel 26, CCA threshold -45
425955:25:Tentative link-local IPv6 address fe80:0000:0000:0000:0212:7419:0019:1919
427455:23:Tentative link-local IPv6 address fe80:0000:0000:0000:0212:7417:0017:1717
428001:25:Starting 'UDP client process'
429503:23:Starting 'UDP client process'
429986:25:UDP client process started
431482:23:UDP client process started
434704:25:Client IPv6 addresses: fe80::212:7419:19:1919
436200:23:Client IPv6 addresses: fe80::212:7417:17:1717
436532:14:Rime started with address 0.18.116.14.0.14.14.14
440090:25:Created a connection with the server :: local/remote port 8765/5678
440354:18:Rime started with address 0.18.116.18.0.18.18.18
444834:14:MAC 00:12:74:0e:00:0e:0e:0e Contiki 3.0 started. Node id is set to 14.
449018:18:MAC 00:12:74:12:00:12:12:12 Contiki 3.0 started. Node id is set to 18.
453423:14:nullsec CSMA ContikiMAC, channel check rate 8 Hz, radio channel 26, CCA threshold -45
457543:18:nullsec CSMA ContikiMAC, channel check rate 8 Hz, radio channel 26, CCA threshold -45
464384:4:Rime started with address 0.18.116.4.0.4.4.4
465765:14:Tentative link-local IPv6 address fe80:0000:0000:0000:0212:740e:000e:0e0e
467828:14:Starting 'UDP client process'
469807:14:UDP client process started
470240:18:Tentative link-local IPv6 address fe80:0000:0000:0000:0212:7412:0012:1212
472288:18:Starting 'UDP client process'
472692:4:MAC 00:12:74:04:00:04:04:04 Contiki 3.0 started. Node id is set to 4.
474252:14:Client IPv6 addresses: fe80::212:740e:e:e0e
474267:18:UDP client process started
478985:18:Client IPv6 addresses: fe80::212:7412:12:1212
481209:4:nullsec CSMA ContikiMAC, channel check rate 8 Hz, radio channel 26, CCA threshold -45
493547:4:Tentative link-local IPv6 address fe80:0000:0000:0000:0212:7404:0004:0404
494231:10:Rime started with address 0.18.116.10.0.10.10.10
495594:4:Starting 'UDP client process'
497653:4:UDP client process started
502088:4:Client IPv6 addresses: fe80::212:7404:4:404
502535:10:MAC 00:12:74:0a:00:0a:0a:0a Contiki 3.0 started. Node id is set to 10.
511124:10:nullsec CSMA ContikiMAC, channel check rate 8 Hz, radio channel 26, CCA threshold -45
523466:10:Tentative link-local IPv6 address fe80:0000:0000:0000:0212:740a:000a:0a0a
525513:10:Starting 'UDP client process'
527492:10:UDP client process started
531935:10:Client IPv6 addresses: fe80::212:740a:a:a0a
551723:6:Rime started with address 0.18.116.6.0.6.6.6
560032:6:MAC 00:12:74:06:00:06:06:06 Contiki 3.0 started. Node id is set to 6.
568549:6:nullsec CSMA ContikiMAC, channel check rate 8 Hz, radio channel 26, CCA threshold -45
580887:6:Tentative link-local IPv6 address fe80:0000:0000:0000:0212:7406:0006:0606
582934:6:Starting 'UDP client process'
584993:6:UDP client process started
589430:6:Client IPv6 addresses: fe80::212:7406:6:606
634649:2:Rime started with address 0.18.116.2.0.2.2.2
642960:2:MAC 00:12:74:02:00:02:02:02 Contiki 3.0 started. Node id is set to 2.
643972:22:Rime started with address 0.18.116.22.0.22.22.22
651477:2:nullsec CSMA ContikiMAC, channel check rate 8 Hz, radio channel 26, CCA threshold -45
652638:22:MAC 00:12:74:16:00:16:16:16 Contiki 3.0 started. Node id is set to 22.
661155:22:nullsec CSMA ContikiMAC, channel check rate 8 Hz, radio channel 26, CCA threshold -45
663815:2:Tentative link-local IPv6 address fe80:0000:0000:0000:0212:7402:0002:0202
665862:2:Starting 'UDP client process'
667921:2:UDP client process started
672356:2:Client IPv6 addresses: fe80::212:7402:2:202
673852:22:Tentative link-local IPv6 address fe80:0000:0000:0000:0212:7416:0016:1616
675898:22:Starting 'UDP client process'
677877:22:UDP client process started
681939:11:Rime started with address 0.18.116.11.0.11.11.11
682584:22:Client IPv6 addresses: fe80::212:7416:16:1616
690243:11:MAC 00:12:74:0b:00:0b:0b:0b Contiki 3.0 started. Node id is set to 11.
696845:20:Rime started with address 0.18.116.20.0.20.20.20
698832:11:nullsec CSMA ContikiMAC, channel check rate 8 Hz, radio channel 26, CCA threshold -45
704465:1:Rime started with address 0.18.116.1.0.1.1.1
705511:20:MAC 00:12:74:14:00:14:14:14 Contiki 3.0 started. Node id is set to 20.
707341:15:Rime started with address 0.18.116.15.0.15.15.15
711174:11:Tentative link-local IPv6 address fe80:0000:0000:0000:0212:740b:000b:0b0b
712775:1:MAC 00:12:74:01:00:01:01:01 Contiki 3.0 started. Node id is set to 1.
713237:11:Starting 'UDP client process'
714036:20:nullsec CSMA ContikiMAC, channel check rate 8 Hz, radio channel 26, CCA threshold -45
715216:11:UDP client process started
715647:15:MAC 00:12:74:0f:00:0f:0f:0f Contiki 3.0 started. Node id is set to 15.
719661:11:Client IPv6 addresses: fe80::212:740b:b:b0b
721292:1:nullsec CSMA ContikiMAC, channel check rate 8 Hz, radio channel 26, CCA threshold -45
724237:15:nullsec CSMA ContikiMAC, channel check rate 8 Hz, radio channel 26, CCA threshold -45
726732:20:Tentative link-local IPv6 address fe80:0000:0000:0000:0212:7414:0014:1414
728778:20:Starting 'UDP client process'
730757:20:UDP client process started
733630:1:Tentative link-local IPv6 address fe80:0000:0000:0000:0212:7401:0001:0101
735462:20:Client IPv6 addresses: fe80::212:7414:14:1414
735676:1:Starting 'UDP server process'
736579:15:Tentative link-local IPv6 address fe80:0000:0000:0000:0212:740f:000f:0f0f
737222:1:UDP server started
738636:15:Starting 'UDP client process'
740615:15:UDP client process started
741341:1:created a new RPL dag
745062:15:Client IPv6 addresses: fe80::212:740f:f:f0f
745441:1:created a new RPL dag
749860:1:Server IPv6 addresses: bbbb::212:7401:1:101
750927:1:bbbb::1
752786:8:Rime started with address 0.18.116.8.0.8.8.8
753829:1:aaaa::212:7401:1:101
754890:1:aaaa::1
757766:1:fe80::212:7401:1:101
761099:8:MAC 00:12:74:08:00:08:08:08 Contiki 3.0 started. Node id is set to 8.
763883:1:Created a server connection with remote address :: local/remote port 5678/8765
769616:8:nullsec CSMA ContikiMAC, channel check rate 8 Hz, radio channel 26, CCA threshold -45
781953:8:Tentative link-local IPv6 address fe80:0000:0000:0000:0212:7408:0008:0808
784000:8:Starting 'UDP client process'
785983:3:Rime started with address 0.18.116.3.0.3.3.3
786059:8:UDP client process started
790494:8:Client IPv6 addresses: fe80::212:7408:8:808
794287:3:MAC 00:12:74:03:00:03:03:03 Contiki 3.0 started. Node id is set to 3.
802804:3:nullsec CSMA ContikiMAC, channel check rate 8 Hz, radio channel 26, CCA threshold -45
815142:3:Tentative link-local IPv6 address fe80:0000:0000:0000:0212:7403:0003:0303
817189:3:Starting 'UDP client process'
819248:3:UDP client process started
823685:3:Client IPv6 addresses: fe80::212:7403:3:303
864987:12:Rime started with address 0.18.116.12.0.12.12.12
869119:21:Rime started with address 0.18.116.21.0.21.21.21
870974:24:Rime started with address 0.18.116.24.0.24.24.24
873286:12:MAC 00:12:74:0c:00:0c:0c:0c Contiki 3.0 started. Node id is set to 12.
877783:21:MAC 00:12:74:15:00:15:15:15 Contiki 3.0 started. Node id is set to 21.
878883:7:Rime started with address 0.18.116.7.0.7.7.7
879638:24:MAC 00:12:74:18:00:18:18:18 Contiki 3.0 started. Node id is set to 24.
881876:12:nullsec CSMA ContikiMAC, channel check rate 8 Hz, radio channel 26, CCA threshold -45
886308:21:nullsec CSMA ContikiMAC, channel check rate 8 Hz, radio channel 26, CCA threshold -45
887193:7:MAC 00:12:74:07:00:07:07:07 Contiki 3.0 started. Node id is set to 7.
888155:24:nullsec CSMA ContikiMAC, channel check rate 8 Hz, radio channel 26, CCA threshold -45
894218:12:Tentative link-local IPv6 address fe80:0000:0000:0000:0212:740c:000c:0c0c
895710:7:nullsec CSMA ContikiMAC, channel check rate 8 Hz, radio channel 26, CCA threshold -45
896264:12:Starting 'UDP client process'
898243:12:UDP client process started
899005:21:Tentative link-local IPv6 address fe80:0000:0000:0000:0212:7415:0015:1515
900852:24:Tentative link-local IPv6 address fe80:0000:0000:0000:0212:7418:0018:1818
901051:21:Starting 'UDP client process'
902686:12:Client IPv6 addresses: fe80::212:740c:c:c0c
902898:24:Starting 'UDP client process'
903031:21:UDP client process started
904877:24:UDP client process started
907752:21:Client IPv6 addresses: fe80::212:7415:15:1515
908048:7:Tentative link-local IPv6 address fe80:0000:0000:0000:0212:7407:0007:0707
909582:24:Client IPv6 addresses: fe80::212:7418:18:1818
910095:7:Starting 'UDP client process'
912154:7:UDP client process started
916593:7:Client IPv6 addresses: fe80::212:7407:7:707
976407:13:Rime started with address 0.18.116.13.0.13.13.13
984704:13:MAC 00:12:74:0d:00:0d:0d:0d Contiki 3.0 started. Node id is set to 13.
993294:13:nullsec CSMA ContikiMAC, channel check rate 8 Hz, radio channel 26, CCA threshold -45
1005635:13:Tentative link-local IPv6 address fe80:0000:0000:0000:0212:740d:000d:0d0d
1007682:13:Starting 'UDP client process'
1009661:13:UDP client process started
1014106:13:Client IPv6 addresses: fe80::212:740d:d:d0d
1069512:5:Rime started with address 0.18.116.5.0.5.5.5
1077815:5:MAC 00:12:74:05:00:05:05:05 Contiki 3.0 started. Node id is set to 5.
1086332:5:nullsec CSMA ContikiMAC, channel check rate 8 Hz, radio channel 26, CCA threshold -45
1098669:5:Tentative link-local IPv6 address fe80:0000:0000:0000:0212:7405:0005:0505
1100716:5:Starting 'UDP client process'
1102511:19:Rime started with address 0.18.116.19.0.19.19.19
1102775:5:UDP client process started
1107212:5:Client IPv6 addresses: fe80::212:7405:5:505
1111178:19:MAC 00:12:74:13:00:13:13:13 Contiki 3.0 started. Node id is set to 19.
1119698:19:nullsec CSMA ContikiMAC, channel check rate 8 Hz, radio channel 26, CCA threshold -45
1132393:19:Tentative link-local IPv6 address fe80:0000:0000:0000:0212:7413:0013:1313
1134440:19:Starting 'UDP client process'
1136419:19:UDP client process started
1141141:19:Client IPv6 addresses: fe80::212:7413:13:1313
1144980:17:Rime started with address 0.18.116.17.0.17.17.17
1153644:17:MAC 00:12:74:11:00:11:11:11 Contiki 3.0 started. Node id is set to 17.
1162160:17:nullsec CSMA ContikiMAC, channel check rate 8 Hz, radio channel 26, CCA threshold -45
1174855:17:Tentative link-local IPv6 address fe80:0000:0000:0000:0212:7411:0011:1111
1176902:17:Starting 'UDP client process'
1178881:17:UDP client process started
1183585:17:Client IPv6 addresses: fe80::212:7411:11:1111
60437076:25:app:send:Hello 1 !
70437019:25:app:send:Hello 2 !
80436985:25:app:send:Hello 3 !
81412387:1:app:recv:25:Hello 2 !
90436985:25:app:send:Hello 4 !
92509352:1:app:recv:25:Hello 4 !
95677900:1:app:recv:25:Hello 1 !
100437000:25:app:send:Hello 5 !
110437019:25:app:send:Hello 6 !
120436966:25:app:send:Hello 7 !
130436947:25:app:send:Hello 8 !
132218093:1:app:recv:25:Hello 8 !
140436966:25:app:send:Hello 9 !
150437195:25:app:send:Hello 10 !
153740158:1:app:recv:25:Hello 10 !
160437214:25:app:send:Hello 11 !
170437195:25:app:send:Hello 12 !
171425732:1:app:recv:25:Hello 12 !
175675372:1:app:recv:25:Hello 12 !
180437267:25:app:send:Hello 13 !
190437214:25:app:send:Hello 14 !
195050555:1:app:recv:25:Hello 14 !
200437233:25:app:send:Hello 15 !
201724328:1:app:recv:25:Hello 15 !
203470972:1:app:recv:25:Hello 15 !
210437247:25:app:send:Hello 16 !
211930460:1:app:recv:25:Hello 16 !
220437195:25:app:send:Hello 17 !
221095299:1:app:recv:25:Hello 17 !
230437195:25:app:send:Hello 18 !
233551225:1:app:recv:25:Hello 18 !
240437195:25:app:send:Hello 19 !
242852933:1:app:recv:25:Hello 19 !
250437195:25:app:send:Hello 20 !
251558589:1:app:recv:25:Hello 20 !
260437233:25:app:send:Hello 21 !
261716807:1:app:recv:25:Hello 21 !
270437195:25:app:send:Hello 22 !
272429754:1:app:recv:25:Hello 22 !
280437195:25:app:send:Hello 23 !
280719811:1:app:recv:25:Hello 23 !
290437214:25:app:send:Hello 24 !
291925158:1:app:recv:25:Hello 24 !
300437195:25:app:send:Hello 25 !
301496480:1:app:recv:25:Hello 25 !
310437214:25:app:send:Hello 26 !
313679332:1:app:recv:25:Hello 26 !
320437214:25:app:send:Hello 27 !
320727812:1:app:recv:25:Hello 27 !
330437195:25:app:send:Hello 28 !
330717762:1:app:recv:25:Hello 28 !
340437195:25:app:send:Hello 29 !
341608171:1:app:recv:25:Hello 29 !
350437216:25:app:send:Hello 30 !
350729807:1:app:recv:25:Hello 30 !
360437250:25:app:send:Hello 31 !
361352815:1:app:recv:25:Hello 31 !
370437197:25:app:send:Hello 32 !
371343002:1:app:recv:25:Hello 32 !
380437197:25:app:send:Hello 33 !
380723571:1:app:recv:25:Hello 33 !
390437197:25:app:send:Hello 34 !
391595297:1:app:recv:25:Hello 34 !
400437197:25:app:send:Hello 35 !
401103032:1:app:recv:25:Hello 35 !
410437216:25:app:send:Hello 36 !
411097489:1:app:recv:25:Hello 36 !
420437197:25:app:send:Hello 37 !
430437197:25:app:send:Hello 38 !
431466409:1:app:recv:25:Hello 38 !
440437197:25:app:send:Hello 39 !
441595636:1:app:recv:25:Hello 39 !
450437195:25:app:send:Hello 40 !
451591666:1:app:recv:25:Hello 40 !
460437214:25:app:send:Hello 41 !
461227088:1:app:recv:25:Hello 41 !
470437195:25:app:send:Hello 42 !
471354233:1:app:recv:25:Hello 42 !
480437195:25:app:send:Hello 43 !
480874072:1:app:recv:25:Hello 43 !
490437195:25:app:send:Hello 44 !
491844265:1:app:recv:25:Hello 44 !
500437214:25:app:send:Hello 45 !
501216864:1:app:recv:25:Hello 45 !
510437195:25:app:send:Hello 46 !
510717544:1:app:recv:25:Hello 46 !
520437195:25:app:send:Hello 47 !
521592857:1:app:recv:25:Hello 47 !
530437214:25:app:send:Hello 48 !
531096727:1:app:recv:25:Hello 48 !
540437195:25:app:send:Hello 49 !
540722834:1:app:recv:25:Hello 49 !
550437235:25:app:send:Hello 50 !
551482553:1:app:recv:25:Hello 50 !
560437216:25:app:send:Hello 51 !
560753826:1:app:recv:25:Hello 51 !
570437197:25:app:send:Hello 52 !
572175980:1:app:recv:25:Hello 52 !
580437216:25:app:send:Hello 53 !
582466377:1:app:recv:25:Hello 53 !
590437197:25:app:send:Hello 54 !
592050980:1:app:recv:25:Hello 54 !
600437197:25:app:send:Hello 55 !
601598990:1:app:recv:25:Hello 55 !
610437197:25:app:send:Hello 56 !
612178869:1:app:recv:25:Hello 56 !
620437197:25:app:send:Hello 57 !
620840710:1:app:recv:25:Hello 57 !
630437197:25:app:send:Hello 58 !
630925584:1:app:recv:25:Hello 58 !
640437197:25:app:send:Hello 59 !
641353549:1:app:recv:25:Hello 59 !
650437197:25:app:send:Hello 60 !
651676469:1:app:recv:25:Hello 60 !
660437197:25:app:send:Hello 61 !
661593986:1:app:recv:25:Hello 61 !
670437197:25:app:send:Hello 62 !
672304569:1:app:recv:25:Hello 62 !
680437197:25:app:send:Hello 63 !
682968493:1:app:recv:25:Hello 63 !
690437197:25:app:send:Hello 64 !
691925089:1:app:recv:25:Hello 64 !
700437197:25:app:send:Hello 65 !
701725263:1:app:recv:25:Hello 65 !
710437197:25:app:send:Hello 66 !
711179535:1:app:recv:25:Hello 66 !
720437197:25:app:send:Hello 67 !
721728418:1:app:recv:25:Hello 67 !
730437235:25:app:send:Hello 68 !
730930147:1:app:recv:25:Hello 68 !
740437197:25:app:send:Hello 69 !
740852566:1:app:recv:25:Hello 69 !
750437199:25:app:send:Hello 70 !
752051132:1:app:recv:25:Hello 70 !
760437199:25:app:send:Hello 71 !
763221265:1:app:recv:25:Hello 71 !
770437199:25:app:send:Hello 72 !
771300767:1:app:recv:25:Hello 72 !
780437199:25:app:send:Hello 73 !
784245054:1:app:recv:25:Hello 73 !
790437199:25:app:send:Hello 74 !
790722314:1:app:recv:25:Hello 74 !
800437199:25:app:send:Hello 75 !
801220145:1:app:recv:25:Hello 75 !
810437199:25:app:send:Hello 76 !
811141443:1:app:recv:25:Hello 76 !
820437199:25:app:send:Hello 77 !
820724172:1:app:recv:25:Hello 77 !
830437199:25:app:send:Hello 78 !
830966395:1:app:recv:25:Hello 78 !
840437218:25:app:send:Hello 79 !
840718648:1:app:recv:25:Hello 79 !
850437214:25:app:send:Hello 80 !
850718641:1:app:recv:25:Hello 80 !
860437195:25:app:send:Hello 81 !
860727938:1:app:recv:25:Hello 81 !
870437195:25:app:send:Hello 82 !
870717969:1:app:recv:25:Hello 82 !
880437195:25:app:send:Hello 83 !
880715493:1:app:recv:25:Hello 83 !
890437195:25:app:send:Hello 84 !
891226888:1:app:recv:25:Hello 84 !
900437214:25:app:send:Hello 85 !
901734310:1:app:recv:25:Hello 85 !
910437214:25:app:send:Hello 86 !
911096788:1:app:recv:25:Hello 86 !
912972179:1:app:recv:25:Hello 86 !
920437214:25:app:send:Hello 87 !
921091715:1:app:recv:25:Hello 87 !
930437195:25:app:send:Hello 88 !
931226771:1:app:recv:25:Hello 88 !
940437195:25:app:send:Hello 89 !
942096204:1:app:recv:25:Hello 89 !
950437250:25:app:send:Hello 90 !
950729482:1:app:recv:25:Hello 90 !
960437197:25:app:send:Hello 91 !
962234225:1:app:recv:25:Hello 91 !
970437197:25:app:send:Hello 92 !
970718279:1:app:recv:25:Hello 92 !
980437216:25:app:send:Hello 93 !
981094934:1:app:recv:25:Hello 93 !
990437197:25:app:send:Hello 94 !
992229102:1:app:recv:25:Hello 94 !
1000437197:25:app:send:Hello 95 !
1000749816:1:app:recv:25:Hello 95 !
1010437197:25:app:send:Hello 96 !
1011342421:1:app:recv:25:Hello 96 !
1020437216:25:app:send:Hello 97 !
1021102690:1:app:recv:25:Hello 97 !
1030437197:25:app:send:Hello 98 !
1031592699:1:app:recv:25:Hello 98 !
1040437197:25:app:send:Hello 99 !
1042725278:1:app:recv:25:Hello 99 !
1050437446:25:app:send:Hello 100 !
1050725399:1:app:recv:25:Hello 100 !
1060437446:25:app:send:Hello 101 !
1060719660:1:app:recv:25:Hello 101 !
1070437461:25:app:send:Hello 102 !
1071467581:1:app:recv:25:Hello 102 !
1080437462:25:app:send:Hello 103 !
1081848388:1:app:recv:25:Hello 103 !
1090437443:25:app:send:Hello 104 !
1090722497:1:app:recv:25:Hello 104 !
1100437510:25:app:send:Hello 105 !
1100732043:1:app:recv:25:Hello 105 !
1110437440:25:app:send:Hello 106 !
1112843274:1:app:recv:25:Hello 106 !
1120437440:25:app:send:Hello 107 !
1120728276:1:app:recv:25:Hello 107 !
1130437441:25:app:send:Hello 108 !
1131729208:1:app:recv:25:Hello 108 !
1140437441:25:app:send:Hello 109 !
1141128442:1:app:recv:25:Hello 109 !
1150437443:25:app:send:Hello 110 !
1151220060:1:app:recv:25:Hello 110 !
1160437443:25:app:send:Hello 111 !
1161721578:1:app:recv:25:Hello 111 !
1170437482:25:app:send:Hello 112 !
1170971771:1:app:recv:25:Hello 112 !
1180437443:25:app:send:Hello 113 !
1183232202:1:app:recv:25:Hello 113 !
1190437443:25:app:send:Hello 114 !
1191972404:1:app:recv:25:Hello 114 !
1200437443:25:app:send:Hello 115 !
1202100519:1:app:recv:25:Hello 115 !
1210437445:25:app:send:Hello 116 !
1210722560:1:app:recv:25:Hello 116 !
1220437445:25:app:send:Hello 117 !
1221113339:1:app:recv:25:Hello 117 !
1230437445:25:app:send:Hello 118 !
1231467553:1:app:recv:25:Hello 118 !
1240437445:25:app:send:Hello 119 !
1241096567:1:app:recv:25:Hello 119 !
1250437462:25:app:send:Hello 120 !
1252971424:1:app:recv:25:Hello 120 !
1260437443:25:app:send:Hello 121 !
1260723001:1:app:recv:25:Hello 121 !
1270437443:25:app:send:Hello 122 !
1271216289:1:app:recv:25:Hello 122 !
1280437443:25:app:send:Hello 123 !
1281596311:1:app:recv:25:Hello 123 !
1290437443:25:app:send:Hello 124 !
1291287315:1:app:recv:25:Hello 124 !
1300437443:25:app:send:Hello 125 !
1301223582:1:app:recv:25:Hello 125 !
1310437443:25:app:send:Hello 126 !
1311100148:1:app:recv:25:Hello 126 !
1320437443:25:app:send:Hello 127 !
1320718383:1:app:recv:25:Hello 127 !
1330437443:25:app:send:Hello 128 !
1330729876:1:app:recv:25:Hello 128 !
1340437462:25:app:send:Hello 129 !
1341217432:1:app:recv:25:Hello 129 !
1350437445:25:app:send:Hello 130 !
1351233516:1:app:recv:25:Hello 130 !
1360437445:25:app:send:Hello 131 !
1361098693:1:app:recv:25:Hello 131 !
1370437464:25:app:send:Hello 132 !
1370718098:1:app:recv:25:Hello 132 !
1380437445:25:app:send:Hello 133 !
1381719389:1:app:recv:25:Hello 133 !
1390437445:25:app:send:Hello 134 !
1390713979:1:app:recv:25:Hello 134 !
1400437517:25:app:send:Hello 135 !
1401093383:1:app:recv:25:Hello 135 !
1410437445:25:app:send:Hello 136 !
1410717581:1:app:recv:25:Hello 136 !
1420437445:25:app:send:Hello 137 !
1421849147:1:app:recv:25:Hello 137 !
1430437445:25:app:send:Hello 138 !
1430717946:1:app:recv:25:Hello 138 !
1440437445:25:app:send:Hello 139 !
1441478687:1:app:recv:25:Hello 139 !
1450437445:25:app:send:Hello 140 !
1450971797:1:app:recv:25:Hello 140 !
1460437445:25:app:send:Hello 141 !
1461594751:1:app:recv:25:Hello 141 !
1470437445:25:app:send:Hello 142 !
1470717676:1:app:recv:25:Hello 142 !
1480437445:25:app:send:Hello 143 !
1482643849:1:app:recv:25:Hello 143 !
1490437445:25:app:send:Hello 144 !
1491716547:1:app:recv:25:Hello 144 !
1500437464:25:app:send:Hello 145 !
1501141117:1:app:recv:25:Hello 145 !
1510437445:25:app:send:Hello 146 !
1511105182:1:app:recv:25:Hello 146 !
1520437445:25:app:send:Hello 147 !
1521102606:1:app:recv:25:Hello 147 !
1530437445:25:app:send:Hello 148 !
1530726648:1:app:recv:25:Hello 148 !
1540437445:25:app:send:Hello 149 !
1541221659:1:app:recv:25:Hello 149 !
1550437447:25:app:send:Hello 150 !
1551972001:1:app:recv:25:Hello 150 !
1560437447:25:app:send:Hello 151 !
1560722728:1:app:recv:25:Hello 151 !
1570437466:25:app:send:Hello 152 !
1570726266:1:app:recv:25:Hello 152 !
1580437447:25:app:send:Hello 153 !
1581096567:1:app:recv:25:Hello 153 !
1590437449:25:app:send:Hello 154 !
1591467545:1:app:recv:25:Hello 154 !
1600437449:25:app:send:Hello 155 !
1601222839:1:app:recv:25:Hello 155 !
1610437449:25:app:send:Hello 156 !
1611093532:1:app:recv:25:Hello 156 !
1620437450:25:app:send:Hello 157 !
1622723425:1:app:recv:25:Hello 157 !
1630437450:25:app:send:Hello 158 !
1631592915:1:app:recv:25:Hello 158 !
1640437466:25:app:send:Hello 159 !
1640718993:1:app:recv:25:Hello 159 !
1650437462:25:app:send:Hello 160 !
1650721403:1:app:recv:25:Hello 160 !
1660437442:25:app:send:Hello 161 !
1661217963:1:app:recv:25:Hello 161 !
1670437514:25:app:send:Hello 162 !
1671854173:1:app:recv:25:Hello 162 !
1680437442:25:app:send:Hello 163 !
1680718291:1:app:recv:25:Hello 163 !
1690437442:25:app:send:Hello 164 !
1691592196:1:app:recv:25:Hello 164 !
1700437442:25:app:send:Hello 165 !
1701219475:1:app:recv:25:Hello 165 !
1710437462:25:app:send:Hello 166 !
1711869515:1:app:recv:25:Hello 166 !
1720437442:25:app:send:Hello 167 !
1720968993:1:app:recv:25:Hello 167 !
1730437462:25:app:send:Hello 168 !
1732592982:1:app:recv:25:Hello 168 !
1740437442:25:app:send:Hello 169 !
1740727698:1:app:recv:25:Hello 169 !
1750437444:25:app:send:Hello 170 !
1751217576:1:app:recv:25:Hello 170 !
1760437444:25:app:send:Hello 171 !
1761466965:1:app:recv:25:Hello 171 !
1770437444:25:app:send:Hello 172 !
1771095186:1:app:recv:25:Hello 172 !
1780437444:25:app:send:Hello 173 !
1781107839:1:app:recv:25:Hello 173 !
1790437444:25:app:send:Hello 174 !
TEST OK
Test ended at simulation time: 1800000000
